<?xml version="1.0" encoding="utf-8"?>
<!-- Generator: Adobe Illustrator 18.1.1, SVG Export Plug-In . SVG Version: 6.00 Build 0)  -->
<!DOCTYPE svg PUBLIC "-//W3C//DTD SVG 1.1//EN" "http://www.w3.org/Graphics/SVG/1.1/DTD/svg11.dtd">
<svg version="1.1" id="logo_1_" xmlns="http://www.w3.org/2000/svg" xmlns:xlink="http://www.w3.org/1999/xlink" x="0px" y="0px"
	 viewBox="0 0 510.2 138.9" enable-background="new 0 0 510.2 138.9" xml:space="preserve">
<g id="Vector_Smart_Object_xA0_Image_1_">
	
		<image display="none" overflow="visible" enable-background="new    " width="819" height="64" id="Vector_Smart_Object_xA0_Image" xlink:href="../../../../../../../../Dropbox/Mintlab/Huisstijl/Logo/Zaaksysteem/7BD869D2B5378222.png"  transform="matrix(0.5148 0 0 0.5148 80.7269 52.9794)">
	</image>
	<g>
		<g>
			<path fill="#FFFFFF" d="M76.6,79.2l16.3-18.4H77.2v-7.7h28.1v6.5L89,78.1h16.3v7.6H76.6V79.2z"/>
			<path fill="#FFFFFF" d="M121.2,52.9h8.6l13.8,32.7H134l-2.4-5.9H119l-2.3,5.9h-9.5L121.2,52.9z M129.1,73l-3.6-9.2l-3.7,9.2
				H129.1z"/>
			<path fill="#FFFFFF" d="M158.2,52.9h8.6l13.9,32.7H171l-2.4-5.9h-12.5l-2.3,5.9h-9.5L158.2,52.9z M166,73l-3.6-9.2l-3.7,9.2H166z
				"/>
			<path fill="#FFFFFF" d="M183.8,53.2h9.1v13.2L204,53.2h10.7l-12.3,14l12.8,18.5h-10.8l-8.2-12.1l-3.3,3.7v8.4h-9.1L183.8,53.2
				L183.8,53.2z"/>
			<path fill="#FFFFFF" d="M230.4,86.3c-2.9,0-5.6-0.5-8.3-1.4c-2.6-0.9-4.9-2.3-7-4l5.1-6c3.2,2.5,6.8,3.9,10.6,3.9
				c1.1,0,2.1-0.2,2.8-0.6c0.6-0.3,0.9-0.9,0.9-1.6v-0.1c0-0.3,0-0.6-0.2-0.9c-0.1-0.2-0.5-0.5-0.9-0.8c-0.5-0.2-1-0.5-1.6-0.7
				c-0.7-0.2-1.6-0.5-2.8-0.7c-1.7-0.5-3.3-0.8-4.8-1.4c-1.5-0.5-2.8-1-3.9-1.8c-1-0.8-2-1.7-2.5-2.9c-0.6-1.1-0.9-2.5-0.9-4.1l0,0
				c0-1.5,0.3-2.9,0.9-4.1c0.6-1.3,1.4-2.4,2.5-3.3c1-0.9,2.4-1.6,4-2.2c1.5-0.5,3.3-0.8,5.3-0.8c2.8,0,5.3,0.3,7.5,1
				c2.2,0.7,4.1,1.8,6,3.2l-4.5,6.4c-1.5-1-3-1.8-4.6-2.4c-1.5-0.5-3.1-0.8-4.5-0.8c-1,0-2,0.2-2.4,0.6c-0.6,0.5-0.8,0.9-0.8,1.5
				v0.1c0,0.3,0.1,0.7,0.2,1c0.1,0.2,0.5,0.5,0.9,0.8c0.5,0.2,1,0.5,1.7,0.7s1.6,0.5,2.8,0.7c1.8,0.5,3.6,0.9,5.1,1.4
				c1.5,0.5,2.8,1.1,3.8,2c1,0.8,1.8,1.7,2.4,2.8c0.6,1,0.8,2.4,0.8,3.9v0.1c0,1.6-0.3,3.1-0.9,4.5c-0.6,1.3-1.5,2.4-2.6,3.3
				c-1.1,0.9-2.5,1.6-4.1,2.1C234.2,86.1,232.5,86.3,230.4,86.3z"/>
			<path fill="#FFFFFF" d="M257.3,73.5l-12.4-20.4h10.2l6.7,11.8l6.8-11.8h10.1l-12.3,20.2v12.3h-9.1V73.5z"/>
			<path fill="#FFFFFF" d="M294.3,86.3c-2.9,0-5.6-0.5-8.3-1.4c-2.6-0.9-4.9-2.3-7-4l5.1-6c3.2,2.5,6.8,3.9,10.6,3.9
				c1.1,0,2.1-0.2,2.8-0.6c0.6-0.3,0.9-0.9,0.9-1.6v-0.1c0-0.3-0.1-0.6-0.2-0.9c-0.1-0.2-0.5-0.5-0.9-0.8c-0.5-0.2-1-0.5-1.6-0.7
				c-0.7-0.2-1.6-0.5-2.8-0.7c-1.7-0.5-3.3-0.8-4.8-1.4c-1.5-0.5-2.8-1-3.9-1.8c-1-0.8-2-1.7-2.5-2.9c-0.6-1.1-0.9-2.5-0.9-4.1l0,0
				c0-1.5,0.3-2.9,0.9-4.1c0.6-1.3,1.4-2.4,2.5-3.3c1-0.9,2.4-1.6,4-2.2c1.6-0.6,3.3-0.8,5.3-0.8c2.8,0,5.3,0.3,7.5,1
				c2.2,0.7,4.1,1.8,6,3.2l-4.5,6.4c-1.5-1-3-1.8-4.6-2.4c-1.5-0.5-3.1-0.8-4.5-0.8c-1,0-2,0.2-2.4,0.6c-0.6,0.5-0.8,0.9-0.8,1.5
				v0.1c0,0.3,0.1,0.7,0.2,1c0.1,0.2,0.5,0.5,0.9,0.8c0.5,0.2,1,0.5,1.7,0.7c0.7,0.2,1.6,0.5,2.8,0.7c1.8,0.5,3.6,0.9,5.1,1.4
				s2.8,1.1,3.8,2c1,0.8,1.8,1.7,2.4,2.8c0.6,1,0.8,2.4,0.8,3.9v0.1c0,1.6-0.3,3.1-0.9,4.5c-0.6,1.4-1.5,2.4-2.6,3.3
				s-2.5,1.6-4.1,2.1C298.1,86.1,296.2,86.3,294.3,86.3z"/>
			<path fill="#FFFFFF" d="M319.7,61h-9.8v-7.9h28.5V61h-9.8v24.6h-9.1L319.7,61L319.7,61z"/>
			<path fill="#FFFFFF" d="M342.4,53.2h26.1v7.7h-17.2v4.9h15.6v7.1h-15.6v5.2h17.5v7.6h-26.3V53.2H342.4z"/>
			<path fill="#FFFFFF" d="M373.3,53.2h26.1v7.7h-17.2v4.9h15.6v7.1h-15.6v5.2h17.5v7.6h-26.3V53.2H373.3z"/>
			<path fill="#FFFFFF" d="M404.3,53.2h9.5l7.7,12.6l7.7-12.6h9.5v32.5h-9V67.1l-8.1,12.8h-0.1l-8.3-12.6v18.6h-8.8V53.2H404.3z"/>
		</g>
		<g>
			<path fill="#FFFFFF" d="M449.9,53.2h3.4l20.4,26.1V53.2h3.6v32.5h-3l-21-26.6v26.6h-3.6L449.9,53.2L449.9,53.2z"/>
			<path fill="#FFFFFF" d="M486.7,53.2h3.7v29.1h18.3v3.4h-21.9V53.2H486.7z"/>
		</g>
		<g>
			<path fill="#FFFFFF" d="M441.5,80.8h4.3v4.9h-4.3V80.8z"/>
		</g>
	</g>
</g>
<g id="Color_Fill_2">
	<g>
		<polygon fill="#FFFFFF" points="1.7,36.8 34.7,36.8 34.7,50.3 15,50.3 15,69.4 1.7,69.4 		"/>
	</g>
</g>
<g id="Color_Fill_2_copy">
	<g>
		<rect x="18.3" y="53.2" fill="#FFFFFF" width="33" height="32.5"/>
	</g>
</g>
<defs>
	<filter id="Adobe_OpacityMaskFilter" filterUnits="userSpaceOnUse" x="35.3" y="172.7" width="33" height="32.5">
		<feColorMatrix  type="matrix" values="1 0 0 0 0  0 1 0 0 0  0 0 1 0 0  0 0 0 1 0"/>
	</filter>
</defs>
<mask maskUnits="userSpaceOnUse" x="35.3" y="172.7" width="33" height="32.5" id="Color_Fill_2_copy_2_1_">
	<g id="Color_Fill_2_copy_2Opacity_Mask_1_" filter="url(#Adobe_OpacityMaskFilter)">
		
			<image overflow="visible" enable-background="new    " width="1296" height="601" id="Color_Fill_2_copy_2Opacity_Mask" xlink:href="../../../../../../../../Dropbox/Mintlab/Huisstijl/Logo/Zaaksysteem/7BD869D2B5378221.jpg"  transform="matrix(0.5149 0 0 0.5149 -85.8174 106.5082)">
		</image>
	</g>
</mask>
<g id="Color_Fill_2_copy_2" display="none" opacity="0.4588" mask="url(#Color_Fill_2_copy_2_1_)">
	<g display="inline">
		<rect x="35.3" y="172.7" fill="#9FD324" width="33" height="32.5"/>
	</g>
</g>
</svg>
